timezone;altitude;lon;lat;city;street;setup_date;is_bvm;lcz;area
Europe/Berlin;261.0;10.8566;49.9006;Bamberg;Georg-Mann-Straße;2023/01/05;False;6;ERBA
Europe/Berlin;261.0;10.8569;49.9017;Bamberg;Höhenstraße;2022/11/28;False;6;ERBA
Europe/Berlin;269.0;10.8595;49.9011;Bamberg;Höhenstraße;2016/08/09;False;6;ERBA
Europe/Berlin;251.0;10.8645;49.9012;Bamberg;Cherbonhofstraße;2017/11/27;False;6;ERBA
Europe/Berlin;239.0;10.8662;49.9047;Bamberg;Krackhardtstraße;2023/11/05;False;6;ERBA
Europe/Berlin;239.0;10.8670;49.9035;Bamberg;Am Werkkanal;2021/01/17;False;6;ERBA
Europe/Berlin;239.0;10.8749;49.8996;Bamberg;Am Weidenufer;2022/04/10;True;6;ERBA
Europe/Berlin;240.0;10.8691;49.9039;Bamberg;Krackhardtstraße;2022/12/25;False;6;ERBA
Europe/Berlin;239.0;10.8711;49.9015;Bamberg;An der Spinnerei;2021/11/20;False;6;ERBA
Europe/Berlin;299.0;10.8769;49.8840;Bamberg;Burgheimer Lage;2022/07/10;False;6;Berggebiet
Europe/Berlin;290.0;10.8859;49.8831;Bamberg;Oberer Stephansberg;2016/10/08;False;6;Berggebiet
Europe/Berlin;249.0;10.8824;49.8922;Bamberg;Grünhundsbrunnen;2023/08/08;False;6;Berggebiet
Europe/Berlin;242.0;10.8844;49.8935;Bamberg;Fischerei;2022/04/07;True;2;Innenstadt
Europe/Berlin;240.0;10.8861;49.8922;Bamberg;Kasernstraße;2020/12/26;False;6;Berggebiet
Europe/Berlin;240.0;10.8921;49.8874;Bamberg;Ottostraße;2023/01/02;False;5;Haingebiet
Europe/Berlin;246.0;10.8903;49.8922;Bamberg;Lange Straße;2021/01/01;False;2;Innenstadt
Europe/Berlin;244.0;10.8915;49.8919;Bamberg;Lange Straße;2022/05/25;True;2;Innenstadt
Europe/Berlin;243.0;10.8917;49.8927;Bamberg;Promenadestraße;2022/05/22;True;2;Innenstadt
Europe/Berlin;243.0;10.8892;49.8955;Bamberg;Frauenstraße;2022/02/04;True;2;Innenstadt
Europe/Berlin;239.0;10.8889;49.8965;Bamberg;Kleberstraße;2019/12/05;False;2;Innenstadt
Europe/Berlin;240.0;10.8881;49.8992;Bamberg;Siechenstraße;2023/04/18;False;8;Laubanger
Europe/Berlin;243.0;10.8940;49.8897;Bamberg;Hainstraße;2022/03/22;True;5;Haingebiet
Europe/Berlin;246.0;10.8941;49.8912;Bamberg;Schützenstraße;2023/02/08;False;5;Haingebiet
Europe/Berlin;247.0;10.8945;49.8941;Bamberg;Heinrichsdamm;2014/11/22;False;2;Innenstadt
Europe/Berlin;243.0;10.8981;49.8906;Bamberg;Küchelstraße;2021/07/16;False;5;Haingebiet
Europe/Berlin;237.0;10.8769;49.9020;Bamberg;Anna-Maria-Junius-Straße;2021/11/26;False;6;ERBA
Europe/Berlin;244.0;10.8830;49.9027;Bamberg;Alte Seilerei;2022/02/02;False;8;Laubanger
Europe/Berlin;242.0;10.8829;49.9034;Bamberg;Alte Seilerei;2016/03/18;False;8;Laubanger
Europe/Berlin;244.0;10.8835;49.9029;Bamberg;Alte Seilerei;2022/12/27;False;8;Laubanger
Europe/Berlin;242.0;10.8934;49.9042;Bamberg;Memmelsdorfer Straße;2014/09/19;False;3;Bamberg-Ost
Europe/Berlin;239.0;10.8950;49.9082;Bamberg;Gundelsheimer Straße;2018/09/19;False;8;Laubanger
Europe/Berlin;241.0;10.8991;49.8854;Bamberg;Wetzelstraße;2022/05/01;True;5;Haingebiet
Europe/Berlin;239.0;10.9000;49.8847;Bamberg;Wetzelstraße;2017/12/13;False;5;Haingebiet
Europe/Berlin;246.0;10.9063;49.8870;Bamberg;Kunigundendamm;2023/01/05;False;3;Bamberg-Ost
Europe/Berlin;244.0;10.9100;49.8959;Bamberg;Agnes-Schwanfelder-Straße;2021/12/02;False;3;Bamberg-Ost
Europe/Berlin;246.0;10.9044;49.9037;Bamberg;Zollnerstraße;2018/06/11;False;3;Bamberg-Ost
Europe/Berlin;245.0;10.9091;49.9025;Bamberg;Kloster-Banz-Straße;2013/10/18;False;3;Bamberg-Ost
Europe/Berlin;309.0;10.8721;49.8722;Bamberg;Guntherstraße;2018/04/25;False;6;Berggebiet
Europe/Berlin;303.0;10.8794;49.8722;Bamberg;Graf-Arnold-Straße;2014/07/11;False;6;Berggebiet
Europe/Berlin;286.0;10.8948;49.8741;Bamberg;Paradiesweg;2023/02/06;False;6;Berggebiet
Europe/Berlin;285.0;10.8981;49.8740;Bamberg;Paradiesweg;2019/02/23;False;6;Berggebiet
Europe/Berlin;248.0;10.9256;49.8865;Bamberg;Berliner Ring;2022/03/06;False;3;Bamberg-Ost
Europe/Berlin;252.0;10.9250;49.8976;Bamberg;Jahnstraße;2022/10/03;False;3;Bamberg-Ost
Europe/Berlin;253.0;10.9222;49.9017;Bamberg;Pödeldorfer Straße;2021/06/23;False;3;Bamberg-Ost
Europe/Berlin;234.0;10.8725;49.9116;Bamberg;Laubanger;2018/08/11;False;8;Laubanger
Europe/Berlin;236.0;10.8893;49.9100;Bamberg;Coburger Straße;2020/12/25;False;8;Laubanger
Europe/Berlin;247.0;10.9076;49.9210;Bamberg;Harthstraße;2014/07/10;False;6;Gartenstadt
Europe/Berlin;252.0;10.9173;49.9118;Bamberg;Stauffenbergstraße;2020/02/24;False;6;Gartenstadt
Europe/Berlin;253.0;10.9215;49.9107;Bamberg;Seinsheimstraße;2020/07/13;False;6;Gartenstadt