{
    "zones":[
        {
            "lcz": "A",
            "name": "Dichter Baumbestand",
            "description": "Wald, Baumschule oder Stadtpark (Laubbäume und/oder immergrüne Bäume)"
        },
        {
            "lcz": "D",
            "name": "Niedrige Bepflanzung",
            "description": "Wiese, Landwirtschaft oder Stadtpark (wenige oder keine Bäume)"
        },
        {
            "lcz": "2",
            "name": "Kompakte, mittelhohe Bebauung",
            "description": "Kompakter Mix verschiedener Gebäudetypen (3-9 Stockwerke), hauptsächlich befestigter Boden, wenige oder keine Bäume"
        },
        {
            "lcz": "3",
            "name": "Kompakte, niedrige Bebauung",
            "description": "Kompakter Mix verschiedener Gebäudetypen (1-3 Stockwerke), hauptsächlich befestigter Boden, wenige oder keine Bäume"
        },
        {
            "lcz": "5",
            "name": "Lockere, mittelhohe Bebauung",
            "description": "Lockere Anordnung von Gebäuden (3-9 Stockwerke), viel durchlässige Bodenschicht, niedrige Pflanzen und vereinzelt Bäume"
        },
        {   
            "lcz": "6",
            "name": "Lockere, niedrige Bebauung",
            "description": "Lockere Anordnung von Gebäuden (1-3 Stockwerke), viel durchlässige Bodenschicht, niedrige Pflanzen und vereinzelt Bäume" 
        },
        {
            "lcz": "8",
            "name":"Großflächige, niedrige Bebauung",
            "description": "Lockere Anordnung von großen Gebäuden (1-3 Stockwerke), hauptsächlich befestigter Boden, wenige oder keine Bäume"
        }
    ]
}