{
  "type": "FeatureCollection",
  "features": [
    {
      "type": "Feature",
      "properties": {
        "name": "ERBA",
        "lcz": 6,
        "fill-opacity": 0.7,
        "fill": "#ff9955",
        "stroke-opacity": 1,
        "stroke": "#ff9955",
        "stroke-width": 2
      },
      "geometry": {
        "coordinates": [
          [
            [
              10.866285733856921,
              49.89780586664802
            ],
            [
              10.872019107947953,
              49.90035183353436
            ],
            [
              10.876075625204022,
              49.89766201074074
            ],
            [
              10.877254735507448,
              49.896888174863484
            ],
            [
              10.87965284593554,
              49.895743966764954
            ],
            [
              10.882335731833324,
              49.8940524970278
            ],
            [
              10.884232201158186,
              49.89534870273239
            ],
            [
              10.887221293356179,
              49.89772321642724
            ],
            [
              10.877135604549057,
              49.9032156077248
            ],
            [
              10.871290227119726,
              49.90517194783936
            ],
            [
              10.86621097035911,
              49.90635330318708
            ],
            [
              10.860638365170896,
              49.907003272553375
            ],
            [
              10.854704201229346,
              49.90745045160899
            ],
            [
              10.84823286474836,
              49.90754160071818
            ],
            [
              10.844713163617373,
              49.908345992583335
            ],
            [
              10.841188667597677,
              49.90885249803339
            ],
            [
              10.841104812313134,
              49.90814939298286
            ],
            [
              10.846437072364706,
              49.906371015754
            ],
            [
              10.846736953164697,
              49.903853020815234
            ],
            [
              10.849847061611008,
              49.90272373639918
            ],
            [
              10.846996559569558,
              49.9004530741428
            ],
            [
              10.855032580001678,
              49.89939598868874
            ],
            [
              10.854751638801403,
              49.89784101592833
            ],
            [
              10.857858730395233,
              49.89821677029264
            ],
            [
              10.859760867730632,
              49.89938141334029
            ],
            [
              10.862468692240263,
              49.89898176805214
            ],
            [
              10.866285733856921,
              49.89780586664802
            ]
          ]
        ],
        "type": "Polygon"
      }
    },
    {
      "type": "Feature",
      "properties": {
        "name": "Bamberg-Ost",
        "lcz": 3,
        "fill-opacity": 0.7,
        "fill": "#ff0000",
        "stroke-opacity": 1,
        "stroke": "#ff0000",
        "stroke-width": 2
      },
      "geometry": {
        "coordinates": [
          [
            [
              10.88890983882131,
              49.90145114516654
            ],
            [
              10.88934111402404,
              49.89999320444212
            ],
            [
              10.88938248537347,
              49.89885273387226
            ],
            [
              10.889390308680138,
              49.898482208387584
            ],
            [
              10.88966432062045,
              49.89791403020047
            ],
            [
              10.890284882051125,
              49.8974187435445
            ],
            [
              10.891699029713013,
              49.897057650523806
            ],
            [
              10.894422247511567,
              49.89697107269725
            ],
            [
              10.89390251171984,
              49.89478705279631
            ],
            [
              10.898854358862524,
              49.89243038503937
            ],
            [
              10.900383050783622,
              49.89131302794991
            ],
            [
              10.902190560901653,
              49.88971146105279
            ],
            [
              10.904005289840246,
              49.88612005666474
            ],
            [
              10.904616323741477,
              49.883654720222864
            ],
            [
              10.91227986140927,
              49.88329682129268
            ],
            [
              10.91605148406682,
              49.88141166354325
            ],
            [
              10.91917645276019,
              49.88023825989465
            ],
            [
              10.92477619178793,
              49.88014569844458
            ],
            [
              10.930490715627261,
              49.877466719147186
            ],
            [
              10.94244914831582,
              49.881918647527286
            ],
            [
              10.93959645155103,
              49.88477016446386
            ],
            [
              10.934765486634848,
              49.886705521199
            ],
            [
              10.929786787373246,
              49.89375707428691
            ],
            [
              10.93212425601947,
              49.8978731281541
            ],
            [
              10.9317278441482,
              49.9022798720893
            ],
            [
              10.94567068522828,
              49.90431171356534
            ],
            [
              10.94505050247896,
              49.90548136545788
            ],
            [
              10.94367519175028,
              49.90717516781108
            ],
            [
              10.93967384072906,
              49.91302033716354
            ],
            [
              10.93525382977795,
              49.911717038718706
            ],
            [
              10.91974875628736,
              49.90745610590164
            ],
            [
              10.91840221097629,
              49.90968842602263
            ],
            [
              10.916303618255911,
              49.91114473738505
            ],
            [
              10.913453552536122,
              49.912445499736386
            ],
            [
              10.909329157201807,
              49.91037054626369
            ],
            [
              10.905779073568892,
              49.90932224409151
            ],
            [
              10.902976270918918,
              49.90878829883424
            ],
            [
              10.90009453167467,
              49.90708012284999
            ],
            [
              10.896449582648243,
              49.90576374827071
            ],
            [
              10.891728256247646,
              49.90358608763461
            ],
            [
              10.88959629731741,
              49.90225177365597
            ],
            [
              10.88856908879501,
              49.90197109842628
            ],
            [
              10.88890983882131,
              49.90145114516654
            ]
          ]
        ],
        "type": "Polygon"
      }
    },
    {
      "type": "Feature",
      "properties": {
        "name": "Hain",
        "lcz": "A",
        "fill-opacity": 0.7,
        "fill": "#006a00",
        "stroke-opacity": 1,
        "stroke": "#006a00",
        "stroke-width": 2
      },
      "geometry": {
        "coordinates": [
          [
            [
              10.890477827021499,
              49.88721198216794
            ],
            [
              10.890224824267193,
              49.887054697963464
            ],
            [
              10.89235951905286,
              49.88520418427616
            ],
            [
              10.89452099204837,
              49.88339630824967
            ],
            [
              10.897919145244714,
              49.87927422249649
            ],
            [
              10.902470983352828,
              49.872853098179974
            ],
            [
              10.905443318476358,
              49.8705925407933
            ],
            [
              10.905896700480497,
              49.871871640629394
            ],
            [
              10.906025859283346,
              49.87412765764395
            ],
            [
              10.905318058185372,
              49.87917680289357
            ],
            [
              10.904596739826758,
              49.88367617181186
            ],
            [
              10.902786364061171,
              49.88335366730803
            ],
            [
              10.902460770450318,
              49.88414180923826
            ],
            [
              10.902225375069122,
              49.884136139198404
            ],
            [
              10.901286837267605,
              49.88270320560363
            ],
            [
              10.899981220244001,
              49.88142488770603
            ],
            [
              10.899631332602468,
              49.88126722970438
            ],
            [
              10.899367032568648,
              49.88138408321879
            ],
            [
              10.895121027126379,
              49.88624593107531
            ],
            [
              10.892879238776345,
              49.88612626870329
            ],
            [
              10.892658648166247,
              49.88622201832021
            ],
            [
              10.891462229452799,
              49.88713369998709
            ],
            [
              10.891224187554371,
              49.88794367478451
            ],
            [
              10.890477827021499,
              49.88721198216794
            ]
          ]
        ],
        "type": "Polygon"
      }
    },
    {
      "type": "Feature",
      "properties": {
        "name": "Gartenstadt",
        "lcz": "6",
        "fill-opacity": 0.7,
        "fill": "#ff9955",
        "stroke-opacity": 1,
        "stroke": "#ff9955",
        "stroke-width": 2
      },
      "geometry": {
        "coordinates": [
          [
            [
              10.919776388470154,
              49.907493637588395
            ],
            [
              10.935239355246233,
              49.91170447453325
            ],
            [
              10.93340755267983,
              49.9138755738356
            ],
            [
              10.92809415442313,
              49.91265375039473
            ],
            [
              10.92720617923129,
              49.91426079434817
            ],
            [
              10.92719994230643,
              49.9158201034969
            ],
            [
              10.92493063883833,
              49.9170218224153
            ],
            [
              10.92395045981439,
              49.91768422027228
            ],
            [
              10.92512013284912,
              49.91840597127413
            ],
            [
              10.92340720132278,
              49.91914647235549
            ],
            [
              10.91656699984501,
              49.92886612691655
            ],
            [
              10.90687769814637,
              49.92473387940732
            ],
            [
              10.90551894130848,
              49.91910179559925
            ],
            [
              10.902861996145722,
              49.91672907005952
            ],
            [
              10.904741125467154,
              49.915560278427755
            ],
            [
              10.9061094878371,
              49.91768228051072
            ],
            [
              10.90751294248214,
              49.9157728121129
            ],
            [
              10.909522030189782,
              49.91464632251068
            ],
            [
              10.91076536985307,
              49.91480002289869
            ],
            [
              10.91193417877907,
              49.91482135800463
            ],
            [
              10.9124428786681,
              49.91527316329952
            ],
            [
              10.91599214368877,
              49.91443673992389
            ],
            [
              10.91521102378373,
              49.91325001109958
            ],
            [
              10.91346288840132,
              49.91244694144149
            ],
            [
              10.916318272705483,
              49.91114863083614
            ],
            [
              10.918407564726547,
              49.90971434136263
            ],
            [
              10.919776388470154,
              49.907493637588395
            ]
          ]
        ],
        "type": "Polygon"
      }
    },
    {
      "type": "Feature",
      "properties": {
        "name": "Laubanger",
        "lcz": 8,
        "fill-opacity": 0.7,
        "fill": "#bcbcbc",
        "stroke-opacity": 1,
        "stroke": "#bcbcbc",
        "stroke-width": 2
      },
      "geometry": {
        "coordinates": [
          [
            [
              10.889582081390955,
              49.90222669776514
            ],
            [
              10.891427349946575,
              49.90340836423546
            ],
            [
              10.896311153548494,
              49.905712215809544
            ],
            [
              10.90008153361492,
              49.90706824680187
            ],
            [
              10.90294026352937,
              49.90877722031642
            ],
            [
              10.905823211271741,
              49.909350905751296
            ],
            [
              10.909259904837308,
              49.910352524369905
            ],
            [
              10.9133707314849,
              49.91241344337368
            ],
            [
              10.91518141649569,
              49.91321745723375
            ],
            [
              10.91583028060561,
              49.91443675689391
            ],
            [
              10.9124428786681,
              49.91527316329952
            ],
            [
              10.91190104649345,
              49.91484278991776
            ],
            [
              10.91066791615839,
              49.91480002959106
            ],
            [
              10.90954103037816,
              49.91460770545443
            ],
            [
              10.9075098501576,
              49.91581645434422
            ],
            [
              10.90611508233019,
              49.91761452379569
            ],
            [
              10.90474735310122,
              49.91555524281176
            ],
            [
              10.90281267994452,
              49.91674142053945
            ],
            [
              10.90554873219968,
              49.91914820238743
            ],
            [
              10.90684215504874,
              49.92473388176089
            ],
            [
              10.89878052299493,
              49.92274687896337
            ],
            [
              10.88401017302033,
              49.92207585825337
            ],
            [
              10.87812575337949,
              49.92132199254279
            ],
            [
              10.87051106049917,
              49.91974072051384
            ],
            [
              10.86238321837263,
              49.91783485099816
            ],
            [
              10.85961773708928,
              49.91622908254199
            ],
            [
              10.85673571200557,
              49.91412933082621
            ],
            [
              10.85262482634445,
              49.91156769842511
            ],
            [
              10.843450861054823,
              49.90855401042331
            ],
            [
              10.848281482511673,
              49.90755977777839
            ],
            [
              10.854732611867204,
              49.907464234324465
            ],
            [
              10.860645795334886,
              49.90701244980156
            ],
            [
              10.866202251687076,
              49.906369371088424
            ],
            [
              10.871359952085207,
              49.90516761240091
            ],
            [
              10.877179620102533,
              49.90323095231024
            ],
            [
              10.887219284902132,
              49.89774276991932
            ],
            [
              10.88807105636152,
              49.89834614015293
            ],
            [
              10.889380205202874,
              49.898487143318015
            ],
            [
              10.88933524181418,
              49.89948027717841
            ],
            [
              10.889344755603586,
              49.899988317872655
            ],
            [
              10.888913376906157,
              49.90145944795671
            ],
            [
              10.888568921587284,
              49.90196774176937
            ],
            [
              10.889582081390955,
              49.90222669776514
            ]
          ]
        ],
        "type": "Polygon"
      }
    },
    {
      "type": "Feature",
      "properties": {
        "name": "Haingebiet",
        "lcz": 5,
        "fill-opacity": 0.7,
        "fill": "#ff6600",
        "stroke-opacity": 1,
        "stroke": "#ff6600",
        "stroke-width": 2
      },
      "geometry": {
        "coordinates": [
          [
            [
              10.88697587288139,
              49.89168891249552
            ],
            [
              10.887490676244951,
              49.890231432262375
            ],
            [
              10.888053235818735,
              49.8890159864958
            ],
            [
              10.890226466538552,
              49.88705899276951
            ],
            [
              10.890476609390726,
              49.88720930421437
            ],
            [
              10.8912232549377,
              49.887951700082475
            ],
            [
              10.89146664208771,
              49.88713589749716
            ],
            [
              10.89266249820049,
              49.88622834602289
            ],
            [
              10.892882915868489,
              49.88613105121588
            ],
            [
              10.893974084624386,
              49.88616572093444
            ],
            [
              10.895126826651893,
              49.88624565464763
            ],
            [
              10.898462505180497,
              49.882378067109535
            ],
            [
              10.89937779159967,
              49.88138437137245
            ],
            [
              10.899629139026073,
              49.88127076218394
            ],
            [
              10.899976822762325,
              49.88142388319395
            ],
            [
              10.901283645217624,
              49.88270695368457
            ],
            [
              10.90182046520349,
              49.8835347297426
            ],
            [
              10.90222253447467,
              49.884135647810204
            ],
            [
              10.902457873564662,
              49.88414384521559
            ],
            [
              10.902791247863902,
              49.88335225010943
            ],
            [
              10.904601173792582,
              49.88368516244461
            ],
            [
              10.90399573989338,
              49.88610297932451
            ],
            [
              10.9021671438525,
              49.88970887781484
            ],
            [
              10.90034154483112,
              49.89133095571943
            ],
            [
              10.89884395856351,
              49.89241826842309
            ],
            [
              10.8972394391203,
              49.89136724989258
            ],
            [
              10.89655423958465,
              49.89130409145953
            ],
            [
              10.89262881056891,
              49.89186686272649
            ],
            [
              10.89183337462653,
              49.89198085996345
            ],
            [
              10.89224431740692,
              49.89127722542852
            ],
            [
              10.89095175724693,
              49.8909149499223
            ],
            [
              10.89037620577237,
              49.89094106893197
            ],
            [
              10.8899537042833,
              49.89115221894438
            ],
            [
              10.88942888655468,
              49.89102856640773
            ],
            [
              10.88898065303838,
              49.89134027366601
            ],
            [
              10.887615236406642,
              49.891565124300826
            ],
            [
              10.88701865723648,
              49.89220438635478
            ],
            [
              10.886475055726176,
              49.89234913378516
            ],
            [
              10.886584760665226,
              49.89220969899627
            ],
            [
              10.88697587288139,
              49.89168891249552
            ]
          ]
        ],
        "type": "Polygon"
      }
    },
    {
      "type": "Feature",
      "properties": {
        "name": "Berggebiet",
        "lcz": 6,
        "fill-opacity": 0.7,
        "fill": "#ff9955",
        "stroke-opacity": 1,
        "stroke": "#ff9955",
        "stroke-width": 2
      },
      "geometry": {
        "coordinates": [
          [
            [
              10.86635166378717,
              49.89779387681453
            ],
            [
              10.87333296957992,
              49.89522207892266
            ],
            [
              10.86951465941491,
              49.89137566401734
            ],
            [
              10.87734573751485,
              49.88797780808484
            ],
            [
              10.87590153695529,
              49.8846577038292
            ],
            [
              10.87869708856243,
              49.88243231208629
            ],
            [
              10.87870857037018,
              49.87834610403052
            ],
            [
              10.87411563373676,
              49.87819022506334
            ],
            [
              10.87258741204267,
              49.87642915750564
            ],
            [
              10.8704043110647,
              49.87514384740015
            ],
            [
              10.86534739088587,
              49.8738755045017
            ],
            [
              10.86682296705914,
              49.87140173737579
            ],
            [
              10.86982856103688,
              49.87102380535015
            ],
            [
              10.87115580892416,
              49.86939318679239
            ],
            [
              10.88002018062656,
              49.87132341239886
            ],
            [
              10.882828695015,
              49.87181779164958
            ],
            [
              10.89017905432287,
              49.87172574089945
            ],
            [
              10.89177960451271,
              49.86926349967568
            ],
            [
              10.8956373357861,
              49.86763639333727
            ],
            [
              10.90188206529598,
              49.86748205733486
            ],
            [
              10.90536059257042,
              49.86926079746853
            ],
            [
              10.9054402524878,
              49.87058906189989
            ],
            [
              10.90248696961245,
              49.87285292740729
            ],
            [
              10.89792778627455,
              49.87926115198137
            ],
            [
              10.89451263717376,
              49.88339877842795
            ],
            [
              10.89215492757386,
              49.8853641854848
            ],
            [
              10.890218713111935,
              49.88705888021734
            ],
            [
              10.888052148533342,
              49.88901875994902
            ],
            [
              10.887489301081676,
              49.89022874984761
            ],
            [
              10.886974430261153,
              49.89168912340728
            ],
            [
              10.886471841479262,
              49.89234518162073
            ],
            [
              10.88230825925483,
              49.8940503621927
            ],
            [
              10.87954619386766,
              49.89578356131068
            ],
            [
              10.877325252618409,
              49.896829248319364
            ],
            [
              10.872016180136558,
              49.90033224846662
            ],
            [
              10.86635166378717,
              49.89779387681453
            ]
          ]
        ],
        "type": "Polygon"
      }
    },
    {
      "type": "Feature",
      "properties": {
        "name": "Innenstadt",
        "lcz": 2,
        "fill-opacity": 0.7,
        "fill": "#d10000",
        "stroke-opacity": 1,
        "stroke": "#d10000",
        "stroke-width": 2
      },
      "geometry": {
        "coordinates": [
          [
            [
              10.8965712189995,
              49.89129323474703
            ],
            [
              10.89721679678917,
              49.89137212482999
            ],
            [
              10.89884527455598,
              49.89243883429607
            ],
            [
              10.89837317008886,
              49.89271674015411
            ],
            [
              10.89620342206971,
              49.89369070445177
            ],
            [
              10.89392037061298,
              49.89477516828658
            ],
            [
              10.89419203065706,
              49.89606102228411
            ],
            [
              10.89440141416801,
              49.89696525965564
            ],
            [
              10.89171635427223,
              49.89705440022309
            ],
            [
              10.89027837700723,
              49.89741262253331
            ],
            [
              10.88964692674095,
              49.89791288788401
            ],
            [
              10.88938641098087,
              49.89848331239811
            ],
            [
              10.888078013268514,
              49.898340333653174
            ],
            [
              10.887240736687186,
              49.89771934862714
            ],
            [
              10.88491954119103,
              49.89588083730682
            ],
            [
              10.88454346324273,
              49.89558336442807
            ],
            [
              10.88416088836893,
              49.89528164176038
            ],
            [
              10.882323502760611,
              49.8940463505075
            ],
            [
              10.883872584728053,
              49.89340447325734
            ],
            [
              10.886498891773275,
              49.8923400167031
            ],
            [
              10.88701906583337,
              49.89220214521356
            ],
            [
              10.88764634608026,
              49.89160470784461
            ],
            [
              10.88894360291365,
              49.89137119256228
            ],
            [
              10.88940385587266,
              49.89102610801837
            ],
            [
              10.88995605364478,
              49.8911720260256
            ],
            [
              10.89032785238522,
              49.89099941279748
            ],
            [
              10.89099749951743,
              49.89096750086738
            ],
            [
              10.89189351633161,
              49.89119937349608
            ],
            [
              10.89222583728816,
              49.89127648017905
            ],
            [
              10.89181858486218,
              49.89198435213076
            ],
            [
              10.89260372784733,
              49.89187567011022
            ],
            [
              10.8965712189995,
              49.89129323474703
            ]
          ]
        ],
        "type": "Polygon"
      }
    }
  ]
}